{
  "version": 1,
  "serviceConfiguration": {
    "apiName": "reacttypescript",
    "serviceName": "AppSync",
    "defaultAuthType": {
      "mode": "API_KEY",
      "expirationTime": 365,
      "apiKeyExpirationDate": "2024-05-31T12:49:59.324Z",
      "keyDescription": "api key description"
    },
    "additionalAuthTypes": [
      {
        "mode": "AWS_IAM"
      }
    ],
    "conflictResolution": {
      "defaultResolutionStrategy": {
        "type": "AUTOMERGE"
      }
    }
  }
}